{
  "quotes": [
    {
      "id": 1,
      "quote": "aaa"
    },
    {
      "id": 2,
      "quote": "bbb"
    },
    {
      "id": 3,
      "quote": "ccc"
    },
    {
      "id": 4,
      "quote": "ddd"
    },
    {
      "id": 5,
      "quote": "eee"
    },
    {
      "id": 6,
      "quote": "fff"
    },
    {
      "id": 7,
      "quote": "ggg"
    }
  ]
}